Zoha Admin

- [ ] Login
    - [ ] Email
    - [ ] Password

Super Admin
- [ ] Dashboard
    - [ ] Number of Buyers
    - [ ] Number of Shops
    - [ ] Number of Saler
    - [ ] Number of importer
    - [ ] Number of manufacturer
    - [ ] Graph of Buyer and Seller(Month wise registration show)
- [ ] Buyer
    - [ ] All Buyer List
    - [ ] View Buyer
- [ ] Shops(Seller)
    - [ ] All Shops List
    - [ ] Edit Activate and Deactivate
    - [ ] View Shop Detail
        - [ ] Number of Products
        - [ ] Internal Shop Details (Chat - in progress)
- [ ] Whole Saler (Pending)
- [ ] Importer (Pending)
- [ ] Manufacturer (Pending)
- [ ] Admin Users 
    - [ ] List of Users
    - [ ] Create (Name , Email, address, Phone Number)- (Password send on email)
    - [ ] Edit 
    - [ ] Delete
    - [ ] View
- [ ] Edit Profile
    - [ ] Name 
    - [ ] Chnage Password (Old Password and New Password)
- [ ] Logout



Users

- [ ] Dashboard
    - [ ] Number of Buyers
    - [ ] Number of Shops
    - [ ] Number of Saler
    - [ ] Number of importer
    - [ ] Number of manufacturer
    - [ ] Graph of Buyer and Seller(Month wise registration show)
- [ ] Buyer
    - [ ] All Buyer List
    - [ ] View Buyer
- [ ] Shops(Seller)
    - [ ] All Shops List
    - [ ] Edit Activate and Deactivate
    - [ ] View Shop Detail
        - [ ] Number of Products
        - [ ] Internal Shop Details (Chat - in progress)
- [ ] Whole Saler (Pending)
- [ ] Importer (Pending)
- [ ] Manufacturer (Pending)
- [ ] Edit Profile
    - [ ] Name 
    - [ ] Password (Old Password and New Password)
- [ ] Logout
